examples/OPC/opc_apb_top.vcd
$version Generated by VerilatedVcd $end
$timescale 1ps $end
 $scope module $unit $end
  $var wire 32 J DATA_WIDTH [31:0] $end
  $var wire 32 K ADDR_WIDTH [31:0] $end
  $var wire 32 K GPIO_WIDTH [31:0] $end
  $var wire 32 K NUM_REGISTERS [31:0] $end
  $var wire 32 J APB_ADDR_WIDTH [31:0] $end
  $var wire 32 L REG_ADDR_LSB [31:0] $end
  $var wire 32 J TIMER_WIDTH [31:0] $end
  $var wire 32 K UART_DATA_WIDTH [31:0] $end
  $var wire 32 K SPI_DATA_WIDTH [31:0] $end
  $var wire 32 K I2C_DATA_WIDTH [31:0] $end
 $upscope $end
 $scope module opc_apb_top_tb $end
  $var wire 1 E PCLK $end
  $var wire 1 # PRESETn $end
  $var wire 1 $ PSEL $end
  $var wire 1 % PENABLE $end
  $var wire 1 & PWRITE $end
  $var wire 32 ' PADDR [31:0] $end
  $var wire 32 ( PWDATA [31:0] $end
  $var wire 32 / PRDATA [31:0] $end
  $var wire 1 0 PREADY $end
  $var wire 1 1 PSLVERR $end
  $var wire 32 ) read_data [31:0] $end
  $var wire 8 * gpio_in_i [7:0] $end
  $var wire 8 2 gpio_out_o [7:0] $end
  $var wire 8 3 gpio_input_o [7:0] $end
  $var wire 32 + pass_count [31:0] $end
  $var wire 32 , fail_count [31:0] $end
  $scope module dut $end
   $var wire 1 E PCLK $end
   $var wire 1 # PRESETn $end
   $var wire 1 $ PSEL $end
   $var wire 1 % PENABLE $end
   $var wire 1 & PWRITE $end
   $var wire 32 ' PADDR [31:0] $end
   $var wire 32 ( PWDATA [31:0] $end
   $var wire 32 / PRDATA [31:0] $end
   $var wire 1 0 PREADY $end
   $var wire 1 1 PSLVERR $end
   $var wire 8 * gpio_in_i [7:0] $end
   $var wire 8 2 gpio_out_o [7:0] $end
   $var wire 8 3 gpio_input_o [7:0] $end
   $var wire 1 4 reg_write_en_w $end
   $var wire 1 5 reg_read_en_w $end
   $var wire 8 6 reg_addr_w [7:0] $end
   $var wire 32 7 reg_wdata_w [31:0] $end
   $var wire 32 / reg_rdata_w [31:0] $end
   $scope module u_apb_wrapper $end
    $var wire 1 E PCLK $end
    $var wire 1 # PRESETn $end
    $var wire 1 $ PSEL $end
    $var wire 1 % PENABLE $end
    $var wire 1 & PWRITE $end
    $var wire 32 ' PADDR [31:0] $end
    $var wire 32 ( PWDATA [31:0] $end
    $var wire 32 / PRDATA [31:0] $end
    $var wire 1 0 PREADY $end
    $var wire 1 1 PSLVERR $end
    $var wire 1 4 write_en_o $end
    $var wire 1 5 read_en_o $end
    $var wire 8 6 addr_o [7:0] $end
    $var wire 32 7 wdata_o [31:0] $end
    $var wire 32 / rdata_i [31:0] $end
    $var wire 1 F apb_access_w $end
    $var wire 1 G apb_write_access_w $end
    $var wire 1 H apb_read_access_w $end
    $var wire 8 - reg_addr_w [7:0] $end
    $var wire 1 . valid_addr_w $end
   $upscope $end
   $scope module u_opc_top $end
    $var wire 1 E clk $end
    $var wire 1 # rst_n $end
    $var wire 1 4 write_en_i $end
    $var wire 1 5 read_en_i $end
    $var wire 8 6 addr_i [7:0] $end
    $var wire 32 7 wdata_i [31:0] $end
    $var wire 32 / rdata_o [31:0] $end
    $var wire 8 * gpio_in_i [7:0] $end
    $var wire 8 2 gpio_out_o [7:0] $end
    $var wire 8 3 gpio_input_o [7:0] $end
    $var wire 8 8 gpio_data [7:0] $end
    $var wire 8 9 gpio_dir [7:0] $end
    $scope module u_crb $end
     $var wire 1 E clk $end
     $var wire 1 # rst_n $end
     $var wire 1 4 write_en_i $end
     $var wire 1 5 read_en_i $end
     $var wire 8 6 addr_i [7:0] $end
     $var wire 32 7 wdata_i [31:0] $end
     $var wire 32 / rdata_o [31:0] $end
     $var wire 8 8 gpio_data_o [7:0] $end
     $var wire 8 9 gpio_dir_o [7:0] $end
     $var wire 32 : reg_file[0] [31:0] $end
     $var wire 32 ; reg_file[1] [31:0] $end
     $var wire 32 < reg_file[2] [31:0] $end
     $var wire 32 = reg_file[3] [31:0] $end
     $var wire 32 > reg_file[4] [31:0] $end
     $var wire 32 ? reg_file[5] [31:0] $end
     $var wire 32 @ reg_file[6] [31:0] $end
     $var wire 32 A reg_file[7] [31:0] $end
     $var wire 32 B i [31:0] $end
     $var wire 32 I REG_INDEX_WIDTH [31:0] $end
     $var wire 3 C reg_index [2:0] $end
    $upscope $end
    $scope module u_gpio $end
     $var wire 1 E clk $end
     $var wire 1 # rst_n $end
     $var wire 8 8 gpio_data_i [7:0] $end
     $var wire 8 9 gpio_dir_i [7:0] $end
     $var wire 8 * gpio_in_i [7:0] $end
     $var wire 8 2 gpio_out_o [7:0] $end
     $var wire 8 3 gpio_input_o [7:0] $end
     $var wire 32 D i [31:0] $end
    $upscope $end
   $upscope $end
  $upscope $end
 $upscope $end
$enddefinitions $end


#0
0#
0$
0%
0&
b00000000000000000000000000000000 '
b00000000000000000000000000000000 (
b00000000000000000000000000000000 )
b00000000 *
b00000000000000000000000000000000 +
b00000000000000000000000000000000 ,
b00000000 -
1.
b00000000000000000000000000000000 /
00
01
b00000000 2
b00000000 3
04
05
b00000000 6
b00000000000000000000000000000000 7
b00000000 8
b00000000 9
b00000000000000000000000000000000 :
b00000000000000000000000000000000 ;
b00000000000000000000000000000000 <
b00000000000000000000000000000000 =
b00000000000000000000000000000000 >
b00000000000000000000000000000000 ?
b00000000000000000000000000000000 @
b00000000000000000000000000000000 A
b00000000000000000000000000000000 B
b000 C
b00000000000000000000000000000000 D
0E
0F
0G
0H
b00000000000000000000000000000011 I
b00000000000000000000000000100000 J
b00000000000000000000000000001000 K
b00000000000000000000000000000010 L
#5000
b00000000000000000000000000001000 B
1E
#10000
0E
#15000
1E
#20000
0E
#25000
1E
#30000
0E
#35000
1E
#40000
0E
#45000
1#
b00000000000000000000000000001000 D
1E
#50000
0E
#55000
1E
#60000
0E
#65000
1E
#70000
0E
#75000
1$
1&
b00000000000000000000000001010101 (
1E
#80000
0E
#85000
1%
10
14
b00000000000000000000000001010101 7
1E
1F
1G
#90000
0E
#95000
0$
0%
0&
00
04
b01010101 8
b00000000000000000000000001010101 :
1E
0F
0G
#100000
0E
#105000
1$
1E
#110000
0E
#115000
1%
b00000000000000000000000001010101 /
10
15
1E
1F
1H
#120000
0E
#125000
0$
0%
b00000000000000000000000001010101 )
b00000000000000000000000000000001 +
b00000000000000000000000000000000 /
00
05
1E
0F
0H
#130000
0E
#135000
1$
1&
b00000000000000000000000000000100 '
b00000000000000000000000011111111 (
b00000001 -
1E
#140000
0E
#145000
1%
10
14
b00000100 6
b00000000000000000000000011111111 7
b001 C
1E
1F
1G
#150000
0E
#155000
0$
0%
0&
00
04
b11111111 9
b00000000000000000000000011111111 ;
1E
0F
0G
#160000
0E
#165000
1$
b01010101 2
1E
#170000
0E
#175000
1%
b00000000000000000000000011111111 /
10
15
1E
1F
1H
#180000
0E
#185000
0$
0%
b00000000000000000000000011111111 )
b10100101 *
b00000000000000000000000000000011 +
b00000000000000000000000000000000 /
00
b10100101 3
05
1E
0F
0H
#190000
0E
#195000
1E
#200000
0E
#205000
b00000000000000000000000000000100 +
1E
#210000
0E
#215000
1$
1&
b00000000000000000000000001000000 '
b00010010001101000101011001111000 (
b00010000 -
0.
1E
#220000
0E
#225000
1%
10
11
1E
1F
1G
#230000
0E
#235000
0$
0%
0&
b00000000000000000000000000000101 +
00
01
1E
0F
0G
#240000
0E
#245000
1$
1&
b00000000000000000000000000000000 '
b10101010101010101010101010101010 (
b00000000 -
1.
1E
#250000
0E
#255000
1%
10
14
b00000000 6
b10101010101010101010101010101010 7
b000 C
1E
1F
1G
#260000
0E
#265000
0$
0%
0&
00
04
b10101010 8
b10101010101010101010101010101010 :
1E
0F
0G
#270000
0E
#275000
1$
1&
b00000000000000000000000000000100 '
b11111111111111111111111111111111 (
b00000001 -
b10101010 2
1E
#280000
0E
#285000
1%
10
14
b00000100 6
b11111111111111111111111111111111 7
b001 C
1E
1F
1G
#290000
0E
#295000
0$
0%
0&
00
04
b11111111111111111111111111111111 ;
1E
0F
0G
#300000
0E
#305000
1$
b00000000000000000000000000000000 '
b00000000 -
1E
#310000
0E
#315000
1%
b10101010101010101010101010101010 /
10
15
b00000000 6
b000 C
1E
1F
1H
#320000
0E
#325000
0$
0%
b10101010101010101010101010101010 )
b00000000000000000000000000000110 +
b00000000000000000000000000000000 /
00
05
1E
0F
0H
